CaballodeTroyaEuler/sim/tb_juego.vcd
$date
	Thu Jul 16 22:04:44 2026
$end
$version
	Icarus Verilog
$end
$timescale
	1ps
$end
$scope module tb_juego $end
$var wire 1 ! led_out $end
$var reg 1 " btn_down $end
$var reg 1 # btn_enter $end
$var reg 1 $ btn_left $end
$var reg 1 % btn_right $end
$var reg 1 & btn_up $end
$var reg 1 ' clk $end
$var reg 1 ( reset $end
$scope module DUT $end
$var wire 1 " btn_down $end
$var wire 1 # btn_enter $end
$var wire 1 $ btn_left $end
$var wire 1 % btn_right $end
$var wire 1 & btn_up $end
$var wire 1 ' clk $end
$var wire 1 ( reset $end
$var wire 1 ) rst $end
$var wire 1 * win $end
$var wire 64 + tablero [63:0] $end
$var wire 1 , q_m $end
$var wire 64 - pos_movi [63:0] $end
$var wire 1 . lose $end
$var wire 1 / load_fc $end
$var wire 1 ! led_out $end
$var wire 1 0 ju_valida $end
$var wire 1 1 enter $end
$var wire 1 2 done_calc $end
$var wire 3 3 cursor_f [2:0] $end
$var wire 3 4 cursor_c [2:0] $end
$var wire 7 5 casillas_pisadas [6:0] $end
$var wire 1 6 cal_mov_va $end
$var wire 3 7 caballo_f [2:0] $end
$var wire 3 8 caballo_c [2:0] $end
$var wire 1 9 add_jugadas $end
$var reg 20 : delay [19:0] $end
$var reg 1 ; init_trigger $end
$scope module CABALLO0 $end
$var wire 1 ' clk $end
$var wire 1 ) rst $end
$var wire 1 / load_fc $end
$var wire 3 < f_in [2:0] $end
$var wire 3 = c_in [2:0] $end
$var reg 3 > c_out [2:0] $end
$var reg 3 ? f_out [2:0] $end
$upscope $end
$scope module CALCULADORA0 $end
$var wire 3 @ c [2:0] $end
$var wire 1 ' clk $end
$var wire 3 A f [2:0] $end
$var wire 1 ) rst $end
$var wire 1 , q_m $end
$var wire 64 B jugadas [63:0] $end
$var wire 4 C f_actual [3:0] $end
$var wire 1 6 cal_mov_va $end
$var wire 4 D c_actual [3:0] $end
$var reg 1 2 done $end
$var reg 64 E pos_movi [63:0] $end
$var integer 32 F i [31:0] $end
$var integer 32 G j [31:0] $end
$upscope $end
$scope module CURSOR0 $end
$var wire 1 H b_d $end
$var wire 1 I b_e $end
$var wire 1 J b_l $end
$var wire 1 K b_r $end
$var wire 1 L b_u $end
$var wire 1 ' clk $end
$var wire 1 ) rst $end
$var wire 1 M p_u $end
$var wire 1 N p_r $end
$var wire 1 O p_l $end
$var wire 1 P p_d $end
$var wire 1 1 enter $end
$var reg 3 Q c_s [2:0] $end
$var reg 3 R f_s [2:0] $end
$scope module DF_D $end
$var wire 1 H boton_in $end
$var wire 1 ' clk $end
$var wire 1 P pulso_out $end
$var reg 2 S estado_boton [1:0] $end
$upscope $end
$scope module DF_E $end
$var wire 1 I boton_in $end
$var wire 1 ' clk $end
$var wire 1 1 pulso_out $end
$var reg 2 T estado_boton [1:0] $end
$upscope $end
$scope module DF_L $end
$var wire 1 J boton_in $end
$var wire 1 ' clk $end
$var wire 1 O pulso_out $end
$var reg 2 U estado_boton [1:0] $end
$upscope $end
$scope module DF_R $end
$var wire 1 K boton_in $end
$var wire 1 ' clk $end
$var wire 1 N pulso_out $end
$var reg 2 V estado_boton [1:0] $end
$upscope $end
$scope module DF_U $end
$var wire 1 L boton_in $end
$var wire 1 ' clk $end
$var wire 1 M pulso_out $end
$var reg 2 W estado_boton [1:0] $end
$upscope $end
$upscope $end
$scope module JUGADAS0 $end
$var wire 3 X c [2:0] $end
$var wire 1 ' clk $end
$var wire 3 Y f [2:0] $end
$var wire 1 ) rst $end
$var wire 64 Z tablero_flat [63:0] $end
$var wire 6 [ indice [5:0] $end
$var wire 1 9 add_jugadas $end
$var reg 7 \ casillas_pisadas [6:0] $end
$var reg 64 ] tablero [63:0] $end
$upscope $end
$scope module PANTALLA0 $end
$var wire 1 ; INIT_M $end
$var wire 1 ) RST_CMD $end
$var wire 3 ^ caballo_c [2:0] $end
$var wire 3 _ caballo_f [2:0] $end
$var wire 1 ' clk $end
$var wire 3 ` cursor_c [2:0] $end
$var wire 3 a cursor_f [2:0] $end
$var wire 64 b pos_movi [63:0] $end
$var wire 64 c tablero [63:0] $end
$var wire 1 * win $end
$var wire 1 d w_z $end
$var wire 9 e w_scan_addr [8:0] $end
$var wire 1 f w_reset $end
$var wire 1 g w_init_led $end
$var wire 1 h w_inc $end
$var wire 1 i w_done_led $end
$var wire 24 j w_RGB [23:0] $end
$var wire 1 . lose $end
$var wire 1 ! DOUT $end
$var wire 1 k DONE_M $end
$scope module TRADUCTOR00 $end
$var wire 8 l addr [7:0] $end
$var wire 3 m caballo_c [2:0] $end
$var wire 3 n caballo_f [2:0] $end
$var wire 1 ' clk $end
$var wire 3 o cursor_c [2:0] $end
$var wire 3 p cursor_f [2:0] $end
$var wire 64 q pos_movi [63:0] $end
$var wire 64 r tablero [63:0] $end
$var wire 1 * win $end
$var wire 1 . lose $end
$var wire 1 s invertir $end
$var wire 4 t fila_led [3:0] $end
$var wire 3 u f [2:0] $end
$var wire 3 v color [2:0] $end
$var wire 4 w col_led [3:0] $end
$var wire 3 x c [2:0] $end
$var parameter 3 y CABALLO $end
$var parameter 24 z COL_CABALLO $end
$var parameter 24 { COL_FONDO_A $end
$var parameter 24 | COL_FONDO_B $end
$var parameter 24 } COL_LOSE $end
$var parameter 24 ~ COL_OCUPADA $end
$var parameter 24 !" COL_POSIBLE $end
$var parameter 24 "" COL_PUNTERO $end
$var parameter 24 #" COL_WIN $end
$var parameter 3 $" OCUPADA $end
$var parameter 3 %" POSIBLE $end
$var parameter 3 &" PUNTERO $end
$var parameter 3 '" VACIO $end
$var reg 24 (" RGB [23:0] $end
$scope module temp00000 $end
$var wire 3 )" c [2:0] $end
$var wire 3 *" caballo_c [2:0] $end
$var wire 3 +" caballo_f [2:0] $end
$var wire 3 ," cursor_c [2:0] $end
$var wire 3 -" cursor_f [2:0] $end
$var wire 3 ." f [2:0] $end
$var wire 64 /" pos_movi [63:0] $end
$var wire 64 0" tablero [63:0] $end
$var wire 6 1" indice [5:0] $end
$var parameter 3 2" CABALLO $end
$var parameter 3 3" OCUPADA $end
$var parameter 3 4" POSIBLE $end
$var parameter 3 5" PUNTERO $end
$var parameter 3 6" VACIO $end
$var reg 3 7" codigo [2:0] $end
$upscope $end
$upscope $end
$scope module control_wLED00 $end
$var wire 1 ; INIT_M $end
$var wire 1 ' clk $end
$var wire 1 ) rst $end
$var wire 1 d z $end
$var wire 1 i DONE_LED $end
$var parameter 3 8" CHECK_END $end
$var parameter 3 9" END_SEND $end
$var parameter 3 :" INC $end
$var parameter 3 ;" SEND_LED $end
$var parameter 3 <" START $end
$var parameter 3 =" START_SEND $end
$var parameter 3 >" WAIT_TX $end
$var reg 1 k DONE $end
$var reg 1 g INIT_LED $end
$var reg 1 h inc $end
$var reg 1 f reset $end
$var reg 4 ?" state [3:0] $end
$upscope $end
$scope module countLED00 $end
$var wire 1 ' clk $end
$var wire 1 h inc $end
$var wire 1 f rst $end
$var reg 9 @" addr [8:0] $end
$upscope $end
$scope module shiftLED00 $end
$var wire 9 A" addr [8:0] $end
$var wire 1 ' clk $end
$var reg 1 d z $end
$upscope $end
$scope module ws2812_LED00 $end
$var wire 1 g INIT $end
$var wire 1 B" RESET_CMD $end
$var wire 24 C" RGB [23:0] $end
$var wire 1 ' clk $end
$var wire 1 ) rst $end
$var wire 1 D" w_z $end
$var wire 1 E" w_sh $end
$var wire 1 F" w_ld $end
$var wire 1 G" w_init_t $end
$var wire 1 H" w_done_t $end
$var wire 1 I" w_dec $end
$var wire 24 J" w_RGB [23:0] $end
$var wire 1 ! DOUT $end
$var wire 1 i DONE $end
$scope module control_wLED00 $end
$var wire 1 ' clk $end
$var wire 1 g init $end
$var wire 1 ) rst $end
$var wire 1 D" z $end
$var wire 1 H" DONE_T $end
$var parameter 3 K" CHECK_END $end
$var parameter 3 L" CHECK_SEL $end
$var parameter 3 M" END_SEND $end
$var parameter 3 N" SEND_BIT $end
$var parameter 3 O" SHIFT $end
$var parameter 3 P" START $end
$var parameter 3 Q" WAIT_TX $end
$var reg 1 i DONE $end
$var reg 1 G" INIT_T $end
$var reg 1 I" dec $end
$var reg 1 F" ld $end
$var reg 1 E" sh $end
$var reg 4 R" state [3:0] $end
$upscope $end
$scope module countLED00 $end
$var wire 1 ' clk $end
$var wire 1 I" dec $end
$var wire 1 F" ld $end
$var reg 6 S" count [5:0] $end
$var reg 1 D" z $end
$upscope $end
$scope module shiftLED00 $end
$var wire 1 ' clk $end
$var wire 24 T" in_RGB [23:0] $end
$var wire 1 F" ld $end
$var wire 1 E" sh $end
$var reg 24 U" o_RGB [23:0] $end
$upscope $end
$scope module ws2812 $end
$var wire 1 G" INIT $end
$var wire 2 V" SEL [1:0] $end
$var wire 1 ' clk $end
$var wire 1 ) rst $end
$var wire 1 W" w_z $end
$var wire 2 X" w_seltim [1:0] $end
$var wire 1 Y" w_reset $end
$var wire 11 Z" w_mux [10:0] $end
$var wire 1 [" w_inc $end
$var wire 11 \" w_count [10:0] $end
$var wire 1 ! DOUT $end
$var wire 1 H" DONE_T $end
$scope module comp_ws00 $end
$var wire 1 ' clk $end
$var wire 11 ]" mux_out [10:0] $end
$var wire 11 ^" count [10:0] $end
$var reg 1 W" z $end
$upscope $end
$scope module control_ws $end
$var wire 2 _" SEL [1:0] $end
$var wire 1 ' clk $end
$var wire 1 G" init $end
$var wire 1 ) rst $end
$var wire 1 W" z $end
$var parameter 4 `" CHECK_SEL $end
$var parameter 4 a" END_SEND $end
$var parameter 4 b" SEND_0 $end
$var parameter 4 c" SEND_1 $end
$var parameter 4 d" SEND_PER $end
$var parameter 4 e" SEND_RES $end
$var parameter 4 f" START $end
$var parameter 4 g" WAIT_T $end
$var parameter 4 h" WAIT_TH $end
$var parameter 4 i" WAIT_TRST $end
$var reg 1 ! DOUT $end
$var reg 2 j" SEL_TIM [1:0] $end
$var reg 1 H" done $end
$var reg 1 [" inc $end
$var reg 1 Y" reset $end
$var reg 4 k" state [3:0] $end
$upscope $end
$scope module count_ws00 $end
$var wire 1 ' clk $end
$var wire 1 [" inc $end
$var wire 1 Y" rst $end
$var reg 11 l" count [10:0] $end
$upscope $end
$scope module multiplexor00 $end
$var wire 2 m" SEL_TIM [1:0] $end
$var wire 1 ' clk $end
$var wire 1 n" rst $end
$var reg 11 o" out [10:0] $end
$upscope $end
$upscope $end
$upscope $end
$upscope $end
$scope module VALIDADOR0 $end
$var wire 3 p" c_s [2:0] $end
$var wire 3 q" f_s [2:0] $end
$var wire 1 0 ju_valida $end
$var wire 64 r" pos_movi [63:0] $end
$var wire 64 s" tablero [63:0] $end
$var wire 6 t" indice [5:0] $end
$upscope $end
$scope module mc0 $end
$var wire 7 u" casillas_pisadas [6:0] $end
$var wire 1 ' clk $end
$var wire 1 2 done_calc $end
$var wire 1 1 enter $end
$var wire 1 0 ju_valida $end
$var wire 1 , q_m $end
$var wire 1 ) rst $end
$var parameter 3 v" APLICA $end
$var parameter 3 w" CALC $end
$var parameter 3 x" ESPERA $end
$var parameter 3 y" EVALUA $end
$var parameter 3 z" GANO $end
$var parameter 3 {" INICIO $end
$var parameter 3 |" PERDIO $end
$var reg 1 9 add_jugadas $end
$var reg 1 6 cal_mov_va $end
$var reg 3 }" estado [2:0] $end
$var reg 1 / load_fc $end
$var reg 1 . lose $end
$var reg 1 * win $end
$upscope $end
$upscope $end
$scope task press_down $end
$upscope $end
$scope task press_enter $end
$upscope $end
$scope task press_left $end
$upscope $end
$scope task press_right $end
$upscope $end
$scope task press_up $end
$upscope $end
$upscope $end
$enddefinitions $end
$comment Show the parameter values. $end
$dumpall
b110 |"
b0 {"
b101 z"
b10 y"
b11 x"
b1 w"
b100 v"
b101 i"
b110 h"
b111 g"
b0 f"
b10 e"
b1000 d"
b100 c"
b11 b"
b1001 a"
b1 `"
b11 Q"
b0 P"
b100 O"
b10 N"
b110 M"
b1 L"
b101 K"
b11 >"
b1 ="
b0 <"
b10 ;"
b100 :"
b110 9"
b101 8"
b0 6"
b100 5"
b10 4"
b1 3"
b11 2"
b0 '"
b100 &"
b10 %"
b1 $"
b1000000000000000000000 #"
b1000000010000000100000 ""
b1000000000000000000000 !"
b10000000000000 ~
b10000000000000 }
b100000001000000010 |
b0 {
b110000 z
b11 y
$end
#0
$dumpvars
b0 }"
bx u"
bx t"
bx s"
b1111111111111111111111111111111111111111111111111111111111111111 r"
bx q"
bx p"
bx o"
zn"
b0 m"
bx l"
bx k"
b0 j"
b0x _"
bx ^"
bx ]"
bx \"
0["
bx Z"
0Y"
b0 X"
0W"
b0x V"
bx U"
b0x0000000x0000000x0 T"
bx S"
bx R"
bx J"
0I"
0H"
0G"
0F"
0E"
xD"
b0x0000000x0000000x0 C"
0B"
bx A"
bx @"
bx ?"
b0 7"
bx 1"
bx 0"
b1111111111111111111111111111111111111111111111111111111111111111 /"
bx ."
bx -"
bx ,"
bx +"
bx *"
bx )"
b0x0000000x0000000x0 ("
bx x
bx w
b0 v
bx u
bx t
xs
bx r
b1111111111111111111111111111111111111111111111111111111111111111 q
bx p
bx o
bx n
bx m
bx l
0k
b0x0000000x0000000x0 j
0i
0h
0g
0f
bx e
0d
bx c
b1111111111111111111111111111111111111111111111111111111111111111 b
bx a
bx `
bx _
bx ^
bx ]
bx \
bx [
bx Z
bx Y
bx X
bx W
bx V
bx U
bx T
bx S
bx R
bx Q
xP
xO
xN
xM
0L
0K
0J
0I
0H
b1000 G
b1000 F
b1111111111111111111111111111111111111111111111111111111111111111 E
b0xxx D
b0xxx C
bx B
bx A
bx @
bx ?
bx >
bx =
bx <
0;
b0 :
x9
bx 8
bx 7
x6
bx 5
bx 4
bx 3
02
x1
x0
x/
x.
b1111111111111111111111111111111111111111111111111111111111111111 -
1,
bx +
x*
1)
0(
0'
1&
1%
1$
1#
1"
0!
$end
#20000
10
0M
bx0 W
0P
bx0 S
0O
bx0 U
0N
bx0 V
01
bx0 T
b0 4
b0 =
b0 Q
b0 X
b0 `
b0 o
b0 ,"
b0 p"
b0 [
b0 t"
b0 3
b0 <
b0 R
b0 Y
b0 a
b0 p
b0 -"
b0 q"
b0 D
b0 8
b0 >
b0 @
b0 ^
b0 m
b0 *"
b0 C
b0 7
b0 ?
b0 A
b0 _
b0 n
b0 +"
b0 5
b0 \
b0 u"
b0 +
b0 B
b0 Z
b0 ]
b0 c
b0 r
b0 0"
b0 s"
0.
0*
0/
09
06
b0 k"
b0 R"
b0 ?"
b1000 G
b1000 F
1'
#40000
b1010 Z"
b1010 ]"
b1010 o"
0'
#60000
b0 T
b0 V
b0 U
b0 S
b0 W
b1000 G
b1000 F
1'
#80000
0'
#100000
b1000 G
b1000 F
1'
#120000
0'
#140000
b1000 G
b1000 F
1'
#160000
0'
#180000
0)
1(
b1000 G
b1000 F
1'
#200000
0'
#220000
b1 :
1f
1F"
1Y"
b1 }"
1/
19
1'
#240000
b100 v
b100 7"
b0 x
b0 )"
b0 w
0s
b0 1"
b0 u
b0 ."
b0 t
b0 V"
b0 _"
b0 l
b0 \"
b0 ^"
b0 l"
0D"
b10111 S"
b0x0000000x0000000x0 J"
b0x0000000x0000000x0 U"
b0 e
b0 @"
b0 A"
0'
#260000
00
b1000 G
b1000 F
b1 5
b1 \
b1 u"
b1 +
b1 B
b1 Z
b1 ]
b1 c
b1 r
b1 0"
b1 s"
16
0/
09
b10 :
1'
#280000
b1000000010000000100000 j
b1000000010000000100000 ("
b1000000010000000100000 C"
b1000000010000000100000 T"
0'
#300000
b100000010000000000 -
b100000010000000000 E
b100000010000000000 b
b100000010000000000 q
b100000010000000000 /"
b100000010000000000 r"
b11 :
16
12
b1000 G
b1000 F
1'
#320000
b1000000010000000100000 J"
b1000000010000000100000 U"
0'
#340000
b10 }"
16
b100 :
b1000 G
b1000 F
1'
#360000
0'
#380000
b101 :
b11 }"
06
b1000 G
b1000 F
1'
#400000
0'
#420000
b110 :
02
1'
#440000
0'
#460000
b111 :
1'
#480000
0'
#500000
b1000 :
1'
#520000
0'
#540000
b1001 :
1'
#560000
0'
#580000
b1010 :
1'
#600000
0'
#620000
b1011 :
1'
#640000
0'
#660000
b1100 :
1'
#680000
0'
#700000
b1101 :
1'
#720000
0'
#740000
b1110 :
1'
#760000
0'
#780000
b1111 :
1'
#800000
0'
#820000
b10000 :
1'
#840000
0'
#860000
b10001 :
1'
#880000
0'
#900000
b10010 :
1'
#920000
0'
#940000
b10011 :
1'
#960000
0'
#980000
b10100 :
1'
#1000000
0'
#1020000
b10101 :
1'
#1040000
0'
#1060000
b10110 :
1'
#1080000
0'
#1100000
b10111 :
1'
#1120000
0'
#1140000
b11000 :
1'
#1160000
0'
#1180000
b11001 :
1'
#1200000
0'
#1220000
b11010 :
1'
#1240000
0'
#1260000
b11011 :
1'
#1280000
0'
#1300000
b11100 :
1'
#1320000
0'
#1340000
b11101 :
1'
#1360000
0'
#1380000
b11110 :
1L
0&
1'
#1400000
0'
#1420000
b11111 :
1M
b1 W
1'
#1440000
0'
#1460000
b11 v
b11 7"
0M
b11 W
b1000 [
b1000 t"
b1 3
b1 <
b1 R
b1 Y
b1 a
b1 p
b1 -"
b1 q"
b100000 :
1'
#1480000
b110000 j
b110000 ("
b110000 C"
b110000 T"
0'
#1500000
b100001 :
1'
#1520000
b110000 J"
b110000 U"
0'
#1540000
b100010 :
1'
#1560000
0'
#1580000
b100011 :
1'
#1600000
0'
#1620000
b100100 :
1'
#1640000
0'
#1660000
b100101 :
1'
#1680000
0'
#1700000
b100110 :
1'
#1720000
0'
#1740000
b100111 :
1'
#1760000
0'
#1780000
b101000 :
0L
1&
1'
#1800000
0'
#1820000
b101001 :
b10 W
1'
#1840000
0'
#1860000
b0 W
b101010 :
1'
#1880000
0'
#1900000
b101011 :
1'
#1920000
0'
#1940000
b101100 :
1'
#1960000
0'
#1980000
b101101 :
1'
#2000000
0'
#2020000
b101110 :
1'
#2040000
0'
#2060000
b101111 :
1'
#2080000
0'
#2100000
b110000 :
1'
#2120000
0'
#2140000
b110001 :
1'
#2160000
0'
#2180000
b110010 :
1L
0&
1'
#2200000
0'
#2220000
b110011 :
1M
b1 W
1'
#2240000
0'
#2260000
0M
b11 W
b10000 [
b10000 t"
b10 3
b10 <
b10 R
b10 Y
b10 a
b10 p
b10 -"
b10 q"
b110100 :
1'
#2280000
0'
#2300000
b110101 :
1'
#2320000
0'
#2340000
b110110 :
1'
#2360000
0'
#2380000
b110111 :
1'
#2400000
0'
#2420000
b111000 :
1'
#2440000
0'
#2460000
b111001 :
1'
#2480000
0'
#2500000
b111010 :
1'
#2520000
0'
#2540000
b111011 :
1'
#2560000
0'
#2580000
b111100 :
0L
1&
1'
#2600000
0'
#2620000
b111101 :
b10 W
1'
#2640000
0'
#2660000
b0 W
b111110 :
1'
#2680000
0'
#2700000
b111111 :
1'
#2720000
0'
#2740000
b1000000 :
1'
#2760000
0'
#2780000
b1000001 :
1'
#2800000
0'
#2820000
b1000010 :
1'
#2840000
0'
#2860000
b1000011 :
1'
#2880000
0'
#2900000
b1000100 :
1'
#2920000
0'
#2940000
b1000101 :
1'
#2960000
0'
#2980000
b1000110 :
1K
0%
1'
#3000000
0'
#3020000
b1000111 :
1N
b1 V
1'
#3040000
0'
#3060000
10
0N
b11 V
b10001 [
b10001 t"
b1 4
b1 =
b1 Q
b1 X
b1 `
b1 o
b1 ,"
b1 p"
b1001000 :
1'
#3080000
0'
#3100000
b1001001 :
1'
#3120000
0'
#3140000
b1001010 :
1'
#3160000
0'
#3180000
b1001011 :
1'
#3200000
0'
#3220000
b1001100 :
1'
#3240000
0'
#3260000
b1001101 :
1'
#3280000
0'
#3300000
b1001110 :
1'
#3320000
0'
#3340000
b1001111 :
1'
#3360000
0'
#3380000
b1010000 :
0K
1%
1'
#3400000
0'
#3420000
b1010001 :
b10 V
1'
#3440000
0'
#3460000
b0 V
b1010010 :
1'
#3480000
0'
#3500000
b1010011 :
1'
#3520000
0'
#3540000
b1010100 :
1'
#3560000
0'
#3580000
b1010101 :
1'
#3600000
0'
#3620000
b1010110 :
1'
#3640000
0'
#3660000
b1010111 :
1'
#3680000
0'
#3700000
b1011000 :
1'
#3720000
0'
#3740000
b1011001 :
1'
#3760000
0'
#3780000
b1011010 :
1I
0#
1'
#3800000
0'
#3820000
b1011011 :
11
b1 T
1'
#3840000
0'
#3860000
01
b11 T
b100 }"
b1011100 :
1'
#3880000
0'
#3900000
b1011101 :
b1 }"
1/
19
1'
#3920000
0'
#3940000
00
b1000 G
b1000 F
b1 v
b1 7"
b1 D
b1 8
b1 >
b1 @
b1 ^
b1 m
b1 *"
b10 C
b10 7
b10 ?
b10 A
b10 _
b10 n
b10 +"
b10 5
b10 \
b10 u"
b100000000000000001 +
b100000000000000001 B
b100000000000000001 Z
b100000000000000001 ]
b100000000000000001 c
b100000000000000001 r
b100000000000000001 0"
b100000000000000001 s"
16
0/
09
b1011110 :
1'
#3960000
b10000000000000 j
b10000000000000 ("
b10000000000000 C"
b10000000000000 T"
0'
#3980000
b10100001000000000000000100000000100 -
b10100001000000000000000100000000100 E
b10100001000000000000000100000000100 b
b10100001000000000000000100000000100 q
b10100001000000000000000100000000100 /"
b10100001000000000000000100000000100 r"
b1011111 :
16
12
b1000 G
b1000 F
1'
#4000000
b10000000000000 J"
b10000000000000 U"
0'
#4020000
b10 }"
16
b1100000 :
b1000 G
b1000 F
1'
#4040000
0'
#4060000
b1100001 :
b11 }"
06
b1000 G
b1000 F
1'
#4080000
0'
#4100000
b1100010 :
02
1'
#4120000
0'
#4140000
b1100011 :
1'
#4160000
0'
#4180000
b1100100 :
0I
1#
1'
#4200000
0'
#4220000
b1100101 :
b10 T
1'
#4240000
0'
#4260000
b0 T
b1100110 :
1'
#4280000
0'
#4300000
b1100111 :
1'
#4320000
0'
#4340000
b1101000 :
1'
#4360000
0'
#4380000
b1101001 :
1'
#4400000
0'
#4420000
b1101010 :
1'
#4440000
0'
#4460000
b1101011 :
1'
#4480000
0'
#4500000
b1101100 :
1'
#4520000
0'
#4540000
b1101101 :
1'
#4560000
0'
#4580000
b1101110 :
1'
#4600000
0'
#4620000
b1101111 :
1'
#4640000
0'
#4660000
b1110000 :
1'
#4680000
0'
#4700000
b1110001 :
1'
#4720000
0'
#4740000
b1110010 :
1'
#4760000
0'
#4780000
b1110011 :
1'
#4800000
0'
#4820000
b1110100 :
1'
#4840000
0'
#4860000
b1110101 :
1'
#4880000
0'
#4900000
b1110110 :
1'
#4920000
0'
#4940000
b1110111 :
1'
#4960000
0'
#4980000
b1111000 :
1'
#5000000
0'
#5020000
b1111001 :
1'
#5040000
0'
#5060000
b1111010 :
1'
#5080000
0'
#5100000
b1111011 :
1'
#5120000
0'
#5140000
b1111100 :
1'
#5160000
0'
#5180000
b1111101 :
1'
#5200000
0'
#5220000
b1111110 :
1'
#5240000
0'
#5260000
b1111111 :
1'
#5280000
0'
#5300000
b10000000 :
1'
#5320000
0'
#5340000
b10000001 :
1'
#5360000
0'
#5380000
b10000010 :
1'
#5400000
0'
#5420000
b10000011 :
1'
#5440000
0'
#5460000
b10000100 :
1'
#5480000
0'
#5500000
b10000101 :
1'
#5520000
0'
#5540000
b10000110 :
1'
#5560000
0'
#5580000
b10000111 :
1'
#5600000
0'
#5620000
b10001000 :
1'
#5640000
0'
#5660000
b10001001 :
1'
#5680000
0'
#5700000
b10001010 :
1'
#5720000
0'
#5740000
b10001011 :
1'
#5760000
0'
#5780000
b10001100 :
1K
0%
1'
#5800000
0'
#5820000
b10001101 :
1N
b1 V
1'
#5840000
0'
#5860000
0N
b11 V
b10010 [
b10010 t"
b10 4
b10 =
b10 Q
b10 X
b10 `
b10 o
b10 ,"
b10 p"
b10001110 :
1'
#5880000
0'
#5900000
b10001111 :
1'
#5920000
0'
#5940000
b10010000 :
1'
#5960000
0'
#5980000
b10010001 :
1'
#6000000
0'
#6020000
b10010010 :
1'
#6040000
0'
#6060000
b10010011 :
1'
#6080000
0'
#6100000
b10010100 :
1'
#6120000
0'
#6140000
b10010101 :
1'
#6160000
0'
#6180000
b10010110 :
0K
1%
1'
#6200000
0'
#6220000
b10010111 :
b10 V
1'
#6240000
0'
#6260000
b0 V
b10011000 :
1'
#6280000
0'
#6300000
b10011001 :
1'
#6320000
0'
#6340000
b10011010 :
1'
#6360000
0'
#6380000
b10011011 :
1'
#6400000
0'
#6420000
b10011100 :
1'
#6440000
0'
#6460000
b10011101 :
1'
#6480000
0'
#6500000
b10011110 :
1'
#6520000
0'
#6540000
b10011111 :
1'
#6560000
0'
#6580000
b10100000 :
1I
0#
1'
#6600000
0'
#6620000
b10100001 :
11
b1 T
1'
#6640000
0'
#6660000
01
b11 T
b10100010 :
1'
#6680000
0'
#6700000
b10100011 :
1'
#6720000
0'
#6740000
b10100100 :
1'
#6760000
0'
#6780000
b10100101 :
1'
#6800000
0'
#6820000
b10100110 :
1'
#6840000
0'
#6860000
b10100111 :
1'
#6880000
0'
#6900000
b10101000 :
1'
#6920000
0'
#6940000
b10101001 :
1'
#6960000
0'
#6980000
b10101010 :
0I
1#
1'
#7000000
0'
#7020000
b10101011 :
b10 T
1'
#7040000
0'
#7060000
b0 T
b10101100 :
1'
#7080000
0'
#7100000
b10101101 :
1'
#7120000
0'
#7140000
b10101110 :
1'
#7160000
0'
#7180000
b10101111 :
1'
#7200000
0'
#7220000
b10110000 :
1'
#7240000
0'
#7260000
b10110001 :
1'
#7280000
0'
#7300000
b10110010 :
1'
#7320000
0'
#7340000
b10110011 :
1'
#7360000
0'
#7380000
b10110100 :
1'
#7400000
0'
#7420000
b10110101 :
1'
#7440000
0'
#7460000
b10110110 :
1'
#7480000
0'
#7500000
b10110111 :
1'
#7520000
0'
#7540000
b10111000 :
1'
#7560000
0'
#7580000
b10111001 :
1'
#7600000
0'
#7620000
b10111010 :
1'
#7640000
0'
#7660000
b10111011 :
1'
#7680000
0'
#7700000
b10111100 :
1'
#7720000
0'
#7740000
b10111101 :
1'
#7760000
0'
#7780000
b10111110 :
1'
#7800000
0'
#7820000
b10111111 :
1'
#7840000
0'
#7860000
b11000000 :
1'
#7880000
0'
#7900000
b11000001 :
1'
#7920000
0'
#7940000
b11000010 :
1'
#7960000
0'
#7980000
b11000011 :
1'
#8000000
0'
#8020000
b11000100 :
1'
#8040000
0'
#8060000
b11000101 :
1'
#8080000
0'
#8100000
b11000110 :
1'
#8120000
0'
#8140000
b11000111 :
1'
#8160000
0'
#8180000
b11001000 :
1'
#8200000
0'
#8220000
b11001001 :
1'
#8240000
0'
#8260000
b11001010 :
1'
#8280000
0'
#8300000
b11001011 :
1'
#8320000
0'
#8340000
b11001100 :
1'
#8360000
0'
#8380000
b11001101 :
1'
#8400000
0'
#8420000
b11001110 :
1'
#8440000
0'
#8460000
b11001111 :
1'
#8480000
0'
#8500000
b11010000 :
1'
#8520000
0'
#8540000
b11010001 :
1'
#8560000
0'
#8580000
b11010010 :
1L
0&
1'
#8600000
0'
#8620000
b11010011 :
1M
b1 W
1'
#8640000
0'
#8660000
0M
b11 W
b11010 [
b11010 t"
b11 3
b11 <
b11 R
b11 Y
b11 a
b11 p
b11 -"
b11 q"
b11010100 :
1'
#8680000
0'
#8700000
b11010101 :
1'
#8720000
0'
#8740000
b11010110 :
1'
#8760000
0'
#8780000
b11010111 :
1'
#8800000
0'
#8820000
b11011000 :
1'
#8840000
0'
#8860000
b11011001 :
1'
#8880000
0'
#8900000
b11011010 :
1'
#8920000
0'
#8940000
b11011011 :
1'
#8960000
0'
#8980000
b11011100 :
0L
1&
1'
#9000000
0'
#9020000
b11011101 :
b10 W
1'
#9040000
0'
#9060000
b0 W
b11011110 :
1'
#9080000
0'
#9100000
b11011111 :
1'
#9120000
0'
#9140000
b11100000 :
1'
#9160000
0'
#9180000
b11100001 :
1'
#9200000
0'
#9220000
b11100010 :
1'
#9240000
0'
#9260000
b11100011 :
1'
#9280000
0'
#9300000
b11100100 :
1'
#9320000
0'
#9340000
b11100101 :
1'
#9360000
0'
#9380000
b11100110 :
1L
0&
1'
#9400000
0'
#9420000
b11100111 :
1M
b1 W
1'
#9440000
0'
#9460000
10
0M
b11 W
b100010 [
b100010 t"
b100 3
b100 <
b100 R
b100 Y
b100 a
b100 p
b100 -"
b100 q"
b11101000 :
1'
#9480000
0'
#9500000
b11101001 :
1'
#9520000
0'
#9540000
b11101010 :
1'
#9560000
0'
#9580000
b11101011 :
1'
#9600000
0'
#9620000
b11101100 :
1'
#9640000
0'
#9660000
b11101101 :
1'
#9680000
0'
#9700000
b11101110 :
1'
#9720000
0'
#9740000
b11101111 :
1'
#9760000
0'
#9780000
b11110000 :
0L
1&
1'
#9800000
0'
#9820000
b11110001 :
b10 W
1'
#9840000
0'
#9860000
b0 W
b11110010 :
1'
#9880000
0'
#9900000
b11110011 :
1'
#9920000
0'
#9940000
b11110100 :
1'
#9960000
0'
#9980000
b11110101 :
1'
#10000000
0'
#10020000
b11110110 :
1'
#10040000
0'
#10060000
b11110111 :
1'
#10080000
0'
#10100000
b11111000 :
1'
#10120000
0'
#10140000
b11111001 :
1'
#10160000
0'
#10180000
b11111010 :
1I
0#
1'
#10200000
0'
#10220000
b11111011 :
11
b1 T
1'
#10240000
0'
#10260000
01
b11 T
b100 }"
b11111100 :
1'
#10280000
0'
#10300000
b11111101 :
b1 }"
1/
19
1'
#10320000
0'
