CaballodeTroyaEuler/sim/tb_ws2812.vcd
$date
	Thu Jul 16 22:21:33 2026
$end
$version
	Icarus Verilog
$end
$timescale
	1ps
$end
$scope module tb_ws2812 $end
$var wire 1 ! DOUT $end
$var wire 1 " DONE $end
$var reg 24 # RGB [23:0] $end
$var reg 1 $ clk $end
$var reg 1 % init $end
$var reg 1 & rst $end
$scope module DUT $end
$var wire 1 % INIT $end
$var wire 1 ' RESET_CMD $end
$var wire 24 ( RGB [23:0] $end
$var wire 1 $ clk $end
$var wire 1 & rst $end
$var wire 1 ) w_z $end
$var wire 1 * w_sh $end
$var wire 1 + w_ld $end
$var wire 1 , w_init_t $end
$var wire 1 - w_done_t $end
$var wire 1 . w_dec $end
$var wire 24 / w_RGB [23:0] $end
$var wire 1 ! DOUT $end
$var wire 1 " DONE $end
$scope module control_wLED00 $end
$var wire 1 $ clk $end
$var wire 1 % init $end
$var wire 1 & rst $end
$var wire 1 ) z $end
$var wire 1 - DONE_T $end
$var parameter 3 0 CHECK_END $end
$var parameter 3 1 CHECK_SEL $end
$var parameter 3 2 END_SEND $end
$var parameter 3 3 SEND_BIT $end
$var parameter 3 4 SHIFT $end
$var parameter 3 5 START $end
$var parameter 3 6 WAIT_TX $end
$var reg 1 " DONE $end
$var reg 1 , INIT_T $end
$var reg 1 . dec $end
$var reg 1 + ld $end
$var reg 1 * sh $end
$var reg 4 7 state [3:0] $end
$upscope $end
$scope module countLED00 $end
$var wire 1 $ clk $end
$var wire 1 . dec $end
$var wire 1 + ld $end
$var reg 6 8 count [5:0] $end
$var reg 1 ) z $end
$upscope $end
$scope module shiftLED00 $end
$var wire 1 $ clk $end
$var wire 24 9 in_RGB [23:0] $end
$var wire 1 + ld $end
$var wire 1 * sh $end
$var reg 24 : o_RGB [23:0] $end
$upscope $end
$scope module ws2812 $end
$var wire 1 , INIT $end
$var wire 2 ; SEL [1:0] $end
$var wire 1 $ clk $end
$var wire 1 & rst $end
$var wire 1 < w_z $end
$var wire 2 = w_seltim [1:0] $end
$var wire 1 > w_reset $end
$var wire 11 ? w_mux [10:0] $end
$var wire 1 @ w_inc $end
$var wire 11 A w_count [10:0] $end
$var wire 1 ! DOUT $end
$var wire 1 - DONE_T $end
$scope module comp_ws00 $end
$var wire 1 $ clk $end
$var wire 11 B mux_out [10:0] $end
$var wire 11 C count [10:0] $end
$var reg 1 < z $end
$upscope $end
$scope module control_ws $end
$var wire 2 D SEL [1:0] $end
$var wire 1 $ clk $end
$var wire 1 , init $end
$var wire 1 & rst $end
$var wire 1 < z $end
$var parameter 4 E CHECK_SEL $end
$var parameter 4 F END_SEND $end
$var parameter 4 G SEND_0 $end
$var parameter 4 H SEND_1 $end
$var parameter 4 I SEND_PER $end
$var parameter 4 J SEND_RES $end
$var parameter 4 K START $end
$var parameter 4 L WAIT_T $end
$var parameter 4 M WAIT_TH $end
$var parameter 4 N WAIT_TRST $end
$var reg 1 ! DOUT $end
$var reg 2 O SEL_TIM [1:0] $end
$var reg 1 - done $end
$var reg 1 @ inc $end
$var reg 1 > reset $end
$var reg 4 P state [3:0] $end
$upscope $end
$scope module count_ws00 $end
$var wire 1 $ clk $end
$var wire 1 @ inc $end
$var wire 1 > rst $end
$var reg 11 Q count [10:0] $end
$upscope $end
$scope module multiplexor00 $end
$var wire 2 R SEL_TIM [1:0] $end
$var wire 1 $ clk $end
$var wire 1 S rst $end
$var reg 11 T out [10:0] $end
$upscope $end
$upscope $end
$upscope $end
$upscope $end
$enddefinitions $end
$comment Show the parameter values. $end
$dumpall
b101 N
b110 M
b111 L
b0 K
b10 J
b1000 I
b100 H
b11 G
b1001 F
b1 E
b11 6
b0 5
b100 4
b10 3
b110 2
b1 1
b101 0
$end
#0
$dumpvars
bx T
zS
b0 R
bx Q
bx P
b0 O
b0x D
bx C
bx B
bx A
0@
bx ?
0>
b0 =
0<
b0x ;
bx :
b101010101010101010101010 9
bx 8
bx 7
bx /
0.
0-
0,
0+
0*
x)
b101010101010101010101010 (
0'
1&
0%
0$
b101010101010101010101010 #
0"
0!
$end
#20000
b0 P
b0 7
1$
#40000
b1010 ?
b1010 B
b1010 T
0$
#60000
1$
#80000
0$
#100000
1$
#120000
0$
#140000
1$
#160000
0$
#180000
1>
1+
0&
1$
#200000
b1 ;
b1 D
b101010101010101010101010 /
b101010101010101010101010 :
0)
b10111 8
b0 A
b0 C
b0 Q
0$
#220000
1$
#240000
0$
#260000
1$
#280000
0$
#300000
1$
#320000
0$
#340000
1$
#360000
0$
#380000
1%
1$
#400000
0$
#420000
b1 7
1$
#440000
0$
#460000
b10 7
0+
1,
1$
#480000
0$
#500000
b1 P
b11 7
0,
0%
1$
#520000
0$
#540000
b100 P
0>
1$
#560000
0$
#580000
b110 P
b1 =
b1 O
b1 R
1@
1!
1$
#600000
b1 A
b1 C
b1 Q
b10100 ?
b10100 B
b10100 T
0$
#620000
1$
#640000
b10 A
b10 C
b10 Q
0$
#660000
1$
#680000
b11 A
b11 C
b11 Q
0$
#700000
1$
#720000
b100 A
b100 C
b100 Q
0$
#740000
1$
#760000
b101 A
b101 C
b101 Q
0$
#780000
1$
#800000
b110 A
b110 C
b110 Q
0$
#820000
1$
#840000
b111 A
b111 C
b111 Q
0$
#860000
1$
#880000
b1000 A
b1000 C
b1000 Q
0$
#900000
1$
#920000
b1001 A
b1001 C
b1001 Q
0$
#940000
1$
#960000
b1010 A
b1010 C
b1010 Q
0$
#980000
1$
#1000000
b1011 A
b1011 C
b1011 Q
0$
#1020000
1$
#1040000
b1100 A
b1100 C
b1100 Q
0$
#1060000
1$
#1080000
b1101 A
b1101 C
b1101 Q
0$
#1100000
1$
#1120000
b1110 A
b1110 C
b1110 Q
0$
#1140000
1$
#1160000
b1111 A
b1111 C
b1111 Q
0$
#1180000
1$
#1200000
b10000 A
b10000 C
b10000 Q
0$
#1220000
1$
#1240000
b10001 A
b10001 C
b10001 Q
0$
#1260000
1$
#1280000
b10010 A
b10010 C
b10010 Q
0$
#1300000
1$
#1320000
b10011 A
b10011 C
b10011 Q
0$
#1340000
1$
#1360000
b10100 A
b10100 C
b10100 Q
0$
#1380000
1$
#1400000
b10101 A
b10101 C
b10101 Q
1<
0$
#1420000
b1000 P
1$
#1440000
0<
b10110 A
b10110 C
b10110 Q
0$
#1460000
b111 P
b11 =
b11 O
b11 R
0!
1$
#1480000
b10111 A
b10111 C
b10111 Q
b11111 ?
b11111 B
b11111 T
0$
#1500000
1$
#1520000
b11000 A
b11000 C
b11000 Q
0$
#1540000
1$
#1560000
b11001 A
b11001 C
b11001 Q
0$
#1580000
1$
#1600000
b11010 A
b11010 C
b11010 Q
0$
#1620000
1$
#1640000
b11011 A
b11011 C
b11011 Q
0$
#1660000
1$
#1680000
b11100 A
b11100 C
b11100 Q
0$
#1700000
1$
#1720000
b11101 A
b11101 C
b11101 Q
0$
#1740000
1$
#1760000
b11110 A
b11110 C
b11110 Q
0$
#1780000
1$
#1800000
b11111 A
b11111 C
b11111 Q
0$
#1820000
1$
#1840000
1<
b100000 A
b100000 C
b100000 Q
0$
#1860000
b1001 P
1$
#1880000
b100001 A
b100001 C
b100001 Q
0<
0$
#1900000
b0 P
b0 =
b0 O
b0 R
0@
1-
1$
#1920000
b1010 ?
b1010 B
b1010 T
0$
#1940000
1>
0-
b100 7
1$
#1960000
b0 A
b0 C
b0 Q
0$
#1980000
b101 7
1.
1*
1$
#2000000
b0 ;
b0 D
b10110 8
b10101010101010101010100 /
b10101010101010101010100 :
0$
#2020000
b1 7
0.
0*
1$
#2040000
0$
#2060000
b10 7
1,
1$
#2080000
0$
#2100000
b1 P
b11 7
0,
1$
#2120000
0$
#2140000
b11 P
0>
1$
#2160000
0$
#2180000
b110 P
1@
1!
1$
#2200000
b1 A
b1 C
b1 Q
0$
#2220000
1$
#2240000
b10 A
b10 C
b10 Q
0$
#2260000
1$
#2280000
b11 A
b11 C
b11 Q
0$
#2300000
1$
#2320000
b100 A
b100 C
b100 Q
0$
#2340000
1$
#2360000
b101 A
b101 C
b101 Q
0$
#2380000
1$
#2400000
b110 A
b110 C
b110 Q
0$
#2420000
1$
#2440000
b111 A
b111 C
b111 Q
0$
#2460000
1$
#2480000
b1000 A
b1000 C
b1000 Q
0$
#2500000
1$
#2520000
b1001 A
b1001 C
b1001 Q
0$
#2540000
1$
#2560000
b1010 A
b1010 C
b1010 Q
0$
#2580000
1$
#2600000
b1011 A
b1011 C
b1011 Q
1<
0$
#2620000
b1000 P
1$
#2640000
0<
b1100 A
b1100 C
b1100 Q
0$
#2660000
b111 P
b11 =
b11 O
b11 R
0!
1$
#2680000
b1101 A
b1101 C
b1101 Q
b11111 ?
b11111 B
b11111 T
0$
#2700000
1$
#2720000
b1110 A
b1110 C
b1110 Q
0$
#2740000
1$
#2760000
b1111 A
b1111 C
b1111 Q
0$
#2780000
1$
#2800000
b10000 A
b10000 C
b10000 Q
0$
#2820000
1$
#2840000
b10001 A
b10001 C
b10001 Q
0$
#2860000
1$
#2880000
b10010 A
b10010 C
b10010 Q
0$
#2900000
1$
#2920000
b10011 A
b10011 C
b10011 Q
0$
#2940000
1$
#2960000
b10100 A
b10100 C
b10100 Q
0$
#2980000
1$
#3000000
b10101 A
b10101 C
b10101 Q
0$
#3020000
1$
#3040000
b10110 A
b10110 C
b10110 Q
0$
#3060000
1$
#3080000
b10111 A
b10111 C
b10111 Q
0$
#3100000
1$
#3120000
b11000 A
b11000 C
b11000 Q
0$
#3140000
1$
#3160000
b11001 A
b11001 C
b11001 Q
0$
#3180000
1$
#3200000
b11010 A
b11010 C
b11010 Q
0$
#3220000
1$
#3240000
b11011 A
b11011 C
b11011 Q
0$
#3260000
1$
#3280000
b11100 A
b11100 C
b11100 Q
0$
#3300000
1$
#3320000
b11101 A
b11101 C
b11101 Q
0$
#3340000
1$
#3360000
b11110 A
b11110 C
b11110 Q
0$
#3380000
1$
#3400000
b11111 A
b11111 C
b11111 Q
0$
#3420000
1$
#3440000
1<
b100000 A
b100000 C
b100000 Q
0$
#3460000
b1001 P
1$
#3480000
b100001 A
b100001 C
b100001 Q
0<
0$
#3500000
b0 P
b0 =
b0 O
b0 R
0@
1-
1$
#3520000
b1010 ?
b1010 B
b1010 T
0$
#3540000
1>
0-
b100 7
1$
#3560000
b0 A
b0 C
b0 Q
0$
#3580000
b101 7
1.
1*
1$
#3600000
b1 ;
b1 D
b10101 8
b101010101010101010101000 /
b101010101010101010101000 :
0$
#3620000
b1 7
0.
0*
1$
#3640000
0$
#3660000
b10 7
1,
1$
#3680000
0$
#3700000
b1 P
b11 7
0,
1$
#3720000
0$
#3740000
b100 P
0>
1$
#3760000
0$
#3780000
b110 P
b1 =
b1 O
b1 R
1@
1!
1$
#3800000
b1 A
b1 C
b1 Q
b10100 ?
b10100 B
b10100 T
0$
#3820000
1$
#3840000
b10 A
b10 C
b10 Q
0$
#3860000
1$
#3880000
b11 A
b11 C
b11 Q
0$
#3900000
1$
#3920000
b100 A
b100 C
b100 Q
0$
#3940000
1$
#3960000
b101 A
b101 C
b101 Q
0$
#3980000
1$
#4000000
b110 A
b110 C
b110 Q
0$
#4020000
1$
#4040000
b111 A
b111 C
b111 Q
0$
#4060000
1$
#4080000
b1000 A
b1000 C
b1000 Q
0$
#4100000
1$
#4120000
b1001 A
b1001 C
b1001 Q
0$
#4140000
1$
#4160000
b1010 A
b1010 C
b1010 Q
0$
#4180000
1$
#4200000
b1011 A
b1011 C
b1011 Q
0$
#4220000
1$
#4240000
b1100 A
b1100 C
b1100 Q
0$
#4260000
1$
#4280000
b1101 A
b1101 C
b1101 Q
0$
#4300000
1$
#4320000
b1110 A
b1110 C
b1110 Q
0$
#4340000
1$
#4360000
b1111 A
b1111 C
b1111 Q
0$
#4380000
1$
#4400000
b10000 A
b10000 C
b10000 Q
0$
#4420000
1$
#4440000
b10001 A
b10001 C
b10001 Q
0$
#4460000
1$
#4480000
b10010 A
b10010 C
b10010 Q
0$
#4500000
1$
#4520000
b10011 A
b10011 C
b10011 Q
0$
#4540000
1$
#4560000
b10100 A
b10100 C
b10100 Q
0$
#4580000
1$
#4600000
b10101 A
b10101 C
b10101 Q
1<
0$
#4620000
b1000 P
1$
#4640000
0<
b10110 A
b10110 C
b10110 Q
0$
#4660000
b111 P
b11 =
b11 O
b11 R
0!
1$
#4680000
b10111 A
b10111 C
b10111 Q
b11111 ?
b11111 B
b11111 T
0$
#4700000
1$
#4720000
b11000 A
b11000 C
b11000 Q
0$
#4740000
1$
#4760000
b11001 A
b11001 C
b11001 Q
0$
#4780000
1$
#4800000
b11010 A
b11010 C
b11010 Q
0$
#4820000
1$
#4840000
b11011 A
b11011 C
b11011 Q
0$
#4860000
1$
#4880000
b11100 A
b11100 C
b11100 Q
0$
#4900000
1$
#4920000
b11101 A
b11101 C
b11101 Q
0$
#4940000
1$
#4960000
b11110 A
b11110 C
b11110 Q
0$
#4980000
1$
#5000000
b11111 A
b11111 C
b11111 Q
0$
#5020000
1$
#5040000
1<
b100000 A
b100000 C
b100000 Q
0$
#5060000
b1001 P
1$
#5080000
b100001 A
b100001 C
b100001 Q
0<
0$
#5100000
b0 P
b0 =
b0 O
b0 R
0@
1-
1$
#5120000
b1010 ?
b1010 B
b1010 T
0$
#5140000
1>
0-
b100 7
1$
#5160000
b0 A
b0 C
b0 Q
0$
#5180000
b101 7
1.
1*
1$
#5200000
b0 ;
b0 D
b10100 8
b10101010101010101010000 /
b10101010101010101010000 :
0$
#5220000
b1 7
0.
0*
1$
#5240000
0$
#5260000
b10 7
1,
1$
#5280000
0$
#5300000
b1 P
b11 7
0,
1$
#5320000
0$
#5340000
b11 P
0>
1$
#5360000
0$
#5380000
b110 P
1@
1!
1$
#5400000
b1 A
b1 C
b1 Q
0$
#5420000
1$
#5440000
b10 A
b10 C
b10 Q
0$
#5460000
1$
#5480000
b11 A
b11 C
b11 Q
0$
#5500000
1$
#5520000
b100 A
b100 C
b100 Q
0$
#5540000
1$
#5560000
b101 A
b101 C
b101 Q
0$
#5580000
1$
#5600000
b110 A
b110 C
b110 Q
0$
#5620000
1$
#5640000
b111 A
b111 C
b111 Q
0$
#5660000
1$
#5680000
b1000 A
b1000 C
b1000 Q
0$
#5700000
1$
#5720000
b1001 A
b1001 C
b1001 Q
0$
#5740000
1$
#5760000
b1010 A
b1010 C
b1010 Q
0$
#5780000
1$
#5800000
b1011 A
b1011 C
b1011 Q
1<
0$
#5820000
b1000 P
1$
#5840000
0<
b1100 A
b1100 C
b1100 Q
0$
#5860000
b111 P
b11 =
b11 O
b11 R
0!
1$
#5880000
b1101 A
b1101 C
b1101 Q
b11111 ?
b11111 B
b11111 T
0$
#5900000
1$
#5920000
b1110 A
b1110 C
b1110 Q
0$
#5940000
1$
#5960000
b1111 A
b1111 C
b1111 Q
0$
#5980000
1$
#6000000
b10000 A
b10000 C
b10000 Q
0$
#6020000
1$
#6040000
b10001 A
b10001 C
b10001 Q
0$
#6060000
1$
#6080000
b10010 A
b10010 C
b10010 Q
0$
#6100000
1$
#6120000
b10011 A
b10011 C
b10011 Q
0$
#6140000
1$
#6160000
b10100 A
b10100 C
b10100 Q
0$
#6180000
1$
#6200000
b10101 A
b10101 C
b10101 Q
0$
#6220000
1$
#6240000
b10110 A
b10110 C
b10110 Q
0$
#6260000
1$
#6280000
b10111 A
b10111 C
b10111 Q
0$
#6300000
1$
#6320000
b11000 A
b11000 C
b11000 Q
0$
#6340000
1$
#6360000
b11001 A
b11001 C
b11001 Q
0$
#6380000
1$
#6400000
b11010 A
b11010 C
b11010 Q
0$
#6420000
1$
#6440000
b11011 A
b11011 C
b11011 Q
0$
#6460000
1$
#6480000
b11100 A
b11100 C
b11100 Q
0$
#6500000
1$
#6520000
b11101 A
b11101 C
b11101 Q
0$
#6540000
1$
#6560000
b11110 A
b11110 C
b11110 Q
0$
#6580000
1$
#6600000
b11111 A
b11111 C
b11111 Q
0$
#6620000
1$
#6640000
1<
b100000 A
b100000 C
b100000 Q
0$
#6660000
b1001 P
1$
#6680000
b100001 A
b100001 C
b100001 Q
0<
0$
#6700000
b0 P
b0 =
b0 O
b0 R
0@
1-
1$
#6720000
b1010 ?
b1010 B
b1010 T
0$
#6740000
1>
0-
b100 7
1$
#6760000
b0 A
b0 C
b0 Q
0$
#6780000
b101 7
1.
1*
1$
#6800000
b1 ;
b1 D
b10011 8
b101010101010101010100000 /
b101010101010101010100000 :
0$
#6820000
b1 7
0.
0*
1$
#6840000
0$
#6860000
b10 7
1,
1$
#6880000
0$
#6900000
b1 P
b11 7
0,
1$
#6920000
0$
#6940000
b100 P
0>
1$
#6960000
0$
#6980000
b110 P
b1 =
b1 O
b1 R
1@
1!
1$
#7000000
b1 A
b1 C
b1 Q
b10100 ?
b10100 B
b10100 T
0$
#7020000
1$
#7040000
b10 A
b10 C
b10 Q
0$
#7060000
1$
#7080000
b11 A
b11 C
b11 Q
0$
#7100000
1$
#7120000
b100 A
b100 C
b100 Q
0$
#7140000
1$
#7160000
b101 A
b101 C
b101 Q
0$
#7180000
1$
#7200000
b110 A
b110 C
b110 Q
0$
#7220000
1$
#7240000
b111 A
b111 C
b111 Q
0$
#7260000
1$
#7280000
b1000 A
b1000 C
b1000 Q
0$
#7300000
1$
#7320000
b1001 A
b1001 C
b1001 Q
0$
#7340000
1$
#7360000
b1010 A
b1010 C
b1010 Q
0$
#7380000
1$
#7400000
b1011 A
b1011 C
b1011 Q
0$
#7420000
1$
#7440000
b1100 A
b1100 C
b1100 Q
0$
#7460000
1$
#7480000
b1101 A
b1101 C
b1101 Q
0$
#7500000
1$
#7520000
b1110 A
b1110 C
b1110 Q
0$
#7540000
1$
#7560000
b1111 A
b1111 C
b1111 Q
0$
#7580000
1$
#7600000
b10000 A
b10000 C
b10000 Q
0$
#7620000
1$
#7640000
b10001 A
b10001 C
b10001 Q
0$
#7660000
1$
#7680000
b10010 A
b10010 C
b10010 Q
0$
#7700000
1$
#7720000
b10011 A
b10011 C
b10011 Q
0$
#7740000
1$
#7760000
b10100 A
b10100 C
b10100 Q
0$
#7780000
1$
#7800000
b10101 A
b10101 C
b10101 Q
1<
0$
#7820000
b1000 P
1$
#7840000
0<
b10110 A
b10110 C
b10110 Q
0$
#7860000
b111 P
b11 =
b11 O
b11 R
0!
1$
#7880000
b10111 A
b10111 C
b10111 Q
b11111 ?
b11111 B
b11111 T
0$
#7900000
1$
#7920000
b11000 A
b11000 C
b11000 Q
0$
#7940000
1$
#7960000
b11001 A
b11001 C
b11001 Q
0$
#7980000
1$
#8000000
b11010 A
b11010 C
b11010 Q
0$
#8020000
1$
#8040000
b11011 A
b11011 C
b11011 Q
0$
#8060000
1$
#8080000
b11100 A
b11100 C
b11100 Q
0$
#8100000
1$
#8120000
b11101 A
b11101 C
b11101 Q
0$
#8140000
1$
#8160000
b11110 A
b11110 C
b11110 Q
0$
#8180000
1$
#8200000
b11111 A
b11111 C
b11111 Q
0$
#8220000
1$
#8240000
1<
b100000 A
b100000 C
b100000 Q
0$
#8260000
b1001 P
1$
#8280000
b100001 A
b100001 C
b100001 Q
0<
0$
#8300000
b0 P
b0 =
b0 O
b0 R
0@
1-
1$
#8320000
b1010 ?
b1010 B
b1010 T
0$
#8340000
1>
0-
b100 7
1$
#8360000
b0 A
b0 C
b0 Q
0$
#8380000
b101 7
1.
1*
1$
#8400000
b0 ;
b0 D
b10010 8
b10101010101010101000000 /
b10101010101010101000000 :
0$
#8420000
b1 7
0.
0*
1$
#8440000
0$
#8460000
b10 7
1,
1$
#8480000
0$
#8500000
b1 P
b11 7
0,
1$
#8520000
0$
#8540000
b11 P
0>
1$
#8560000
0$
#8580000
b110 P
1@
1!
1$
#8600000
b1 A
b1 C
b1 Q
0$
#8620000
1$
#8640000
b10 A
b10 C
b10 Q
0$
#8660000
1$
#8680000
b11 A
b11 C
b11 Q
0$
#8700000
1$
#8720000
b100 A
b100 C
b100 Q
0$
#8740000
1$
#8760000
b101 A
b101 C
b101 Q
0$
#8780000
1$
#8800000
b110 A
b110 C
b110 Q
0$
#8820000
1$
#8840000
b111 A
b111 C
b111 Q
0$
#8860000
1$
#8880000
b1000 A
b1000 C
b1000 Q
0$
#8900000
1$
#8920000
b1001 A
b1001 C
b1001 Q
0$
#8940000
1$
#8960000
b1010 A
b1010 C
b1010 Q
0$
#8980000
1$
#9000000
b1011 A
b1011 C
b1011 Q
1<
0$
#9020000
b1000 P
1$
#9040000
0<
b1100 A
b1100 C
b1100 Q
0$
#9060000
b111 P
b11 =
b11 O
b11 R
0!
1$
#9080000
b1101 A
b1101 C
b1101 Q
b11111 ?
b11111 B
b11111 T
0$
#9100000
1$
#9120000
b1110 A
b1110 C
b1110 Q
0$
#9140000
1$
#9160000
b1111 A
b1111 C
b1111 Q
0$
#9180000
1$
#9200000
b10000 A
b10000 C
b10000 Q
0$
#9220000
1$
#9240000
b10001 A
b10001 C
b10001 Q
0$
#9260000
1$
#9280000
b10010 A
b10010 C
b10010 Q
0$
#9300000
1$
#9320000
b10011 A
b10011 C
b10011 Q
0$
#9340000
1$
#9360000
b10100 A
b10100 C
b10100 Q
0$
#9380000
1$
#9400000
b10101 A
b10101 C
b10101 Q
0$
#9420000
1$
#9440000
b10110 A
b10110 C
b10110 Q
0$
#9460000
1$
#9480000
b10111 A
b10111 C
b10111 Q
0$
#9500000
1$
#9520000
b11000 A
b11000 C
b11000 Q
0$
#9540000
1$
#9560000
b11001 A
b11001 C
b11001 Q
0$
#9580000
1$
#9600000
b11010 A
b11010 C
b11010 Q
0$
#9620000
1$
#9640000
b11011 A
b11011 C
b11011 Q
0$
#9660000
1$
#9680000
b11100 A
b11100 C
b11100 Q
0$
#9700000
1$
#9720000
b11101 A
b11101 C
b11101 Q
0$
#9740000
1$
#9760000
b11110 A
b11110 C
b11110 Q
0$
#9780000
1$
#9800000
b11111 A
b11111 C
b11111 Q
0$
#9820000
1$
#9840000
1<
b100000 A
b100000 C
b100000 Q
0$
#9860000
b1001 P
1$
#9880000
b100001 A
b100001 C
b100001 Q
0<
0$
#9900000
b0 P
b0 =
b0 O
b0 R
0@
1-
1$
#9920000
b1010 ?
b1010 B
b1010 T
0$
#9940000
1>
0-
b100 7
1$
#9960000
b0 A
b0 C
b0 Q
0$
#9980000
b101 7
1.
1*
1$
#10000000
b1 ;
b1 D
b10001 8
b101010101010101010000000 /
b101010101010101010000000 :
0$
#10020000
b1 7
0.
0*
1$
#10040000
0$
#10060000
b10 7
1,
1$
#10080000
0$
#10100000
b1 P
b11 7
0,
1$
#10120000
0$
#10140000
b100 P
0>
1$
#10160000
0$
#10180000
b110 P
b1 =
b1 O
b1 R
1@
1!
1$
#10200000
b1 A
b1 C
b1 Q
b10100 ?
b10100 B
b10100 T
0$
#10220000
1$
#10240000
b10 A
b10 C
b10 Q
0$
#10260000
1$
#10280000
b11 A
b11 C
b11 Q
0$
#10300000
1$
#10320000
b100 A
b100 C
b100 Q
0$
#10340000
1$
#10360000
b101 A
b101 C
b101 Q
0$
#10380000
1$
#10400000
b110 A
b110 C
b110 Q
0$
#10420000
1$
#10440000
b111 A
b111 C
b111 Q
0$
#10460000
1$
#10480000
b1000 A
b1000 C
b1000 Q
0$
#10500000
1$
#10520000
b1001 A
b1001 C
b1001 Q
0$
#10540000
1$
#10560000
b1010 A
b1010 C
b1010 Q
0$
#10580000
1$
#10600000
b1011 A
b1011 C
b1011 Q
0$
#10620000
1$
#10640000
b1100 A
b1100 C
b1100 Q
0$
#10660000
1$
#10680000
b1101 A
b1101 C
b1101 Q
0$
#10700000
1$
#10720000
b1110 A
b1110 C
b1110 Q
0$
#10740000
1$
#10760000
b1111 A
b1111 C
b1111 Q
0$
#10780000
1$
#10800000
b10000 A
b10000 C
b10000 Q
0$
#10820000
1$
#10840000
b10001 A
b10001 C
b10001 Q
0$
#10860000
1$
#10880000
b10010 A
b10010 C
b10010 Q
0$
#10900000
1$
#10920000
b10011 A
b10011 C
b10011 Q
0$
#10940000
1$
#10960000
b10100 A
b10100 C
b10100 Q
0$
#10980000
1$
#11000000
b10101 A
b10101 C
b10101 Q
1<
0$
#11020000
b1000 P
1$
#11040000
0<
b10110 A
b10110 C
b10110 Q
0$
#11060000
b111 P
b11 =
b11 O
b11 R
0!
1$
#11080000
b10111 A
b10111 C
b10111 Q
b11111 ?
b11111 B
b11111 T
0$
#11100000
1$
#11120000
b11000 A
b11000 C
b11000 Q
0$
#11140000
1$
#11160000
b11001 A
b11001 C
b11001 Q
0$
#11180000
1$
#11200000
b11010 A
b11010 C
b11010 Q
0$
#11220000
1$
#11240000
b11011 A
b11011 C
b11011 Q
0$
#11260000
1$
#11280000
b11100 A
b11100 C
b11100 Q
0$
#11300000
1$
#11320000
b11101 A
b11101 C
b11101 Q
0$
#11340000
1$
#11360000
b11110 A
b11110 C
b11110 Q
0$
#11380000
1$
#11400000
b11111 A
b11111 C
b11111 Q
0$
#11420000
1$
#11440000
1<
b100000 A
b100000 C
b100000 Q
0$
#11460000
b1001 P
1$
#11480000
b100001 A
b100001 C
b100001 Q
0<
0$
#11500000
b0 P
b0 =
b0 O
b0 R
0@
1-
1$
#11520000
b1010 ?
b1010 B
b1010 T
0$
#11540000
1>
0-
b100 7
1$
#11560000
b0 A
b0 C
b0 Q
0$
#11580000
b101 7
1.
1*
1$
#11600000
b0 ;
b0 D
b10000 8
b10101010101010100000000 /
b10101010101010100000000 :
0$
#11620000
b1 7
0.
0*
1$
#11640000
0$
#11660000
b10 7
1,
1$
#11680000
0$
#11700000
b1 P
b11 7
0,
1$
#11720000
0$
#11740000
b11 P
0>
1$
#11760000
0$
#11780000
b110 P
1@
1!
1$
#11800000
b1 A
b1 C
b1 Q
0$
#11820000
1$
#11840000
b10 A
b10 C
b10 Q
0$
#11860000
1$
#11880000
b11 A
b11 C
b11 Q
0$
#11900000
1$
#11920000
b100 A
b100 C
b100 Q
0$
#11940000
1$
#11960000
b101 A
b101 C
b101 Q
0$
#11980000
1$
#12000000
b110 A
b110 C
b110 Q
0$
#12020000
1$
#12040000
b111 A
b111 C
b111 Q
0$
#12060000
1$
#12080000
b1000 A
b1000 C
b1000 Q
0$
#12100000
1$
#12120000
b1001 A
b1001 C
b1001 Q
0$
#12140000
1$
#12160000
b1010 A
b1010 C
b1010 Q
0$
#12180000
1$
#12200000
b1011 A
b1011 C
b1011 Q
1<
0$
#12220000
b1000 P
1$
#12240000
0<
b1100 A
b1100 C
b1100 Q
0$
#12260000
b111 P
b11 =
b11 O
b11 R
0!
1$
#12280000
b1101 A
b1101 C
b1101 Q
b11111 ?
b11111 B
b11111 T
0$
#12300000
1$
#12320000
b1110 A
b1110 C
b1110 Q
0$
#12340000
1$
#12360000
b1111 A
b1111 C
b1111 Q
0$
#12380000
1$
#12400000
b10000 A
b10000 C
b10000 Q
0$
#12420000
1$
#12440000
b10001 A
b10001 C
b10001 Q
0$
#12460000
1$
#12480000
b10010 A
b10010 C
b10010 Q
0$
#12500000
1$
#12520000
b10011 A
b10011 C
b10011 Q
0$
#12540000
1$
#12560000
b10100 A
b10100 C
b10100 Q
0$
#12580000
1$
#12600000
b10101 A
b10101 C
b10101 Q
0$
#12620000
1$
#12640000
b10110 A
b10110 C
b10110 Q
0$
#12660000
1$
#12680000
b10111 A
b10111 C
b10111 Q
0$
#12700000
1$
#12720000
b11000 A
b11000 C
b11000 Q
0$
#12740000
1$
#12760000
b11001 A
b11001 C
b11001 Q
0$
#12780000
1$
#12800000
b11010 A
b11010 C
b11010 Q
0$
#12820000
1$
#12840000
b11011 A
b11011 C
b11011 Q
0$
#12860000
1$
#12880000
b11100 A
b11100 C
b11100 Q
0$
#12900000
1$
#12920000
b11101 A
b11101 C
b11101 Q
0$
#12940000
1$
#12960000
b11110 A
b11110 C
b11110 Q
0$
#12980000
1$
#13000000
b11111 A
b11111 C
b11111 Q
0$
#13020000
1$
#13040000
1<
b100000 A
b100000 C
b100000 Q
0$
#13060000
b1001 P
1$
#13080000
b100001 A
b100001 C
b100001 Q
0<
0$
#13100000
b0 P
b0 =
b0 O
b0 R
0@
1-
1$
#13120000
b1010 ?
b1010 B
b1010 T
0$
#13140000
1>
0-
b100 7
1$
#13160000
b0 A
b0 C
b0 Q
0$
#13180000
b101 7
1.
1*
1$
#13200000
b1 ;
b1 D
b1111 8
b101010101010101000000000 /
b101010101010101000000000 :
0$
#13220000
b1 7
0.
0*
1$
#13240000
0$
#13260000
b10 7
1,
1$
#13280000
0$
#13300000
b1 P
b11 7
0,
1$
#13320000
0$
#13340000
b100 P
0>
1$
#13360000
0$
#13380000
b110 P
b1 =
b1 O
b1 R
1@
1!
1$
#13400000
b1 A
b1 C
b1 Q
b10100 ?
b10100 B
b10100 T
0$
#13420000
1$
#13440000
b10 A
b10 C
b10 Q
0$
#13460000
1$
#13480000
b11 A
b11 C
b11 Q
0$
#13500000
1$
#13520000
b100 A
b100 C
b100 Q
0$
#13540000
1$
#13560000
b101 A
b101 C
b101 Q
0$
#13580000
1$
#13600000
b110 A
b110 C
b110 Q
0$
#13620000
1$
#13640000
b111 A
b111 C
b111 Q
0$
#13660000
1$
#13680000
b1000 A
b1000 C
b1000 Q
0$
#13700000
1$
#13720000
b1001 A
b1001 C
b1001 Q
0$
#13740000
1$
#13760000
b1010 A
b1010 C
b1010 Q
0$
#13780000
1$
#13800000
b1011 A
b1011 C
b1011 Q
0$
#13820000
1$
#13840000
b1100 A
b1100 C
b1100 Q
0$
#13860000
1$
#13880000
b1101 A
b1101 C
b1101 Q
0$
#13900000
1$
#13920000
b1110 A
b1110 C
b1110 Q
0$
#13940000
1$
#13960000
b1111 A
b1111 C
b1111 Q
0$
#13980000
1$
#14000000
b10000 A
b10000 C
b10000 Q
0$
#14020000
1$
